[{"id":1,"name":"SAMSUNG TV","price":15000,"quantity":10, "img":"samsung.jpg"},
  {"id":2,"name":"LG TV","price":13000,"quantity":10, "img":"lg.gif"},
  {"id":3,"name":"Iphone XS","price":13000,"quantity":10, "img":"iphone.jpg"},
  {"id":4,"name":"Xbox","price":10000,"quantity":10, "img":"xbox.png"},
  {"id":5,"name":"PHP Programming","price":1000,"quantity":8, "img":"php.jpg"},
  {"id":6,"name":"PHP Programming","price":1000,"quantity":8, "img":"php.jpg"},
  {"id":7,"name":"PHP Programming","price":1000,"quantity":8, "img":"php.jpg"},
  {"id":8,"name":"PHP Programming","price":1000,"quantity":8, "img":"php.jpg"},
  {"id":9,"name":"PHP Programming","price":1000,"quantity":8, "img":"php.jpg"},
  {"id":10,"name":"PHP Programming","price":1000,"quantity":8, "img":"php.jpg"}
]