[
  {
    "firstName": "Artem",
    "login": "login1",
    "password": "123456789",
    "email": "artem@gmail.com",
    "language": "ua"
  },
  {
    "firstName": "Oleg",
    "login": "login2",
    "password": "12345",
    "email": "oleg@gmail.com",
    "language": "en"
  },
  {
    "firstName": "Sasha",
    "login": "login3",
    "password": "qwerty",
    "email": "sasha@gmail.com",
    "language": "fr"
  },
  {
    "firstName": "Lesya",
    "login": "login4",
    "password": "987654321",
    "email": "lesya@gmail.com",
    "language": "ua"
  }
]